{
  "postInfo": {
    "postId": "{{#? $root.id}}",
    "userId": "{{#? $root.user_id}}",
    "pageId": "{{#? $root.page_id}}"
  },
  "publishInfo": {
    "published": "{{#? $root.is_published}}",
    "publishDate": "{{#? $root.published_at}}"
  },
  "dates": {
    "dateCreated": "{{#? $root.created_at}}",
    "dateModified": "{{#? $root.updated_at}}"
  },
  "postContent": {
    "title": "{{#? $root.title}}",
    "url": "{{#? $root.slug}}",
    "content": "{{#? $root.content}}",
    "banner": "{{#? $root.header_img}}"
  },
  "tags": {
    "tags": "{{#? $root.tags}}",
    "taggedUsers": "{{#? $root.tagged_users}}",
    "categories": "{{#? $root.categories}}"
  }
}
