{
  "pageInfo": {
    "id": "{{#? $root.id}}",
    "title": "{{#? $root.title}}",
    "Date Of Creation": "{{#? $root.created_at}}"
  },
  "tags": [
    {
      "{{#if tags}}": {
        "{{#each tags}}": "{{content}}"
      }
    }
  ]
}
